<svg xmlns="http://www.w3.org/2000/svg" width="40" height="40" viewBox="0 0 40 40">
    <g id="prefix__person_add" transform="translate(-168 -4098.102)">
        <path id="prefix__Path" d="M0 0H40V40H0z" transform="translate(168 4098.102)" style="fill:transparent"/>
        <path id="prefix__Icon" d="M37 27H10.09v-3.375c0-1.383.875-3.382 5.044-5.06a24.907 24.907 0 0 1 8.411-1.691 24.908 24.908 0 0 1 8.412 1.691C36.125 20.243 37 22.243 37 23.625V27zm-13.455-6.751c-4.5 0-9.723 2.167-10.09 3.377h20.182c-.337-1.209-5.556-3.377-10.092-3.377zM8.409 18.562H5.046V13.5H0v-3.375h5.046V5.061h3.363v5.064h5.046V13.5H8.409v5.062zM23.545 13.5a6.75 6.75 0 1 1 6.728-6.75 6.745 6.745 0 0 1-6.728 6.75zm0-10.125A3.375 3.375 0 1 0 26.91 6.75a3.373 3.373 0 0 0-3.365-3.375z" transform="translate(170 4105.102)" style="fill:#333333"/>
    </g>
</svg>
